{
	"name": "LntMedia",
	"author": "Tasnad Kernetzky",
	"description": "Embeds audio and video files by using html5 tags and www.html5media.info scripts.",
	"type": "parserhook",
	"requires": {
		"MediaWiki": ">= 1.29.0"
	},
    "AutoloadClasses": {
        "LntMediaC": "LntMedia.php"
    },
	"Hooks": {
		"ParserFirstCallInit": "LntMediaC::init",
        "EditPage::showEditForm:initial": "LntMediaC::addButtonToEditor"
    },
    "ResourceModules": {
        "ext.LntMedia": {
            "scripts": "EditorButton.js"
        }
    },
    "ResourceFileModulePaths": {
        "localBasePath": "",
        "remoteExtPath": "LntMedia"
    },
	"manifest_version": 2
}
